// Jest Snapshot v1, https://goo.gl/fbAQLP

exports[`cell_actions makeCell Renders a cell component with some props 1`] = `
<div
  className="cell "
>
  <label
    className="cell__label"
    htmlFor="cell-12345"
  >
    <img
      alt={12345}
      className="cell__user-image"
      src="default-user.svg"
    />
    Chris Marsh
    <input
      className="cell__input"
      id="cell-12345"
      onClick={[Function]}
      type="checkbox"
    />
  </label>
</div>
`;
